lab3/simulation/qsim/lab3.msim.vcd
$comment
	File created using the following command:
		vcd file lab3.msim.vcd -direction
$end
$date
	Fri Feb 11 03:10:24 2022
$end
$version
	ModelSim Version 10.3d
$end
$timescale
	1ps
$end

$scope module lab3_vlg_vec_tst $end
$var reg 1 ! a1 $end
$var reg 1 " b2 $end
$var reg 1 # Cin $end
$var wire 1 $ Cout $end
$var wire 1 % s $end
$var wire 1 & sampler $end

$scope module i1 $end
$var wire 1 ' gnd $end
$var wire 1 ( vcc $end
$var wire 1 ) unknown $end
$var tri1 1 * devclrn $end
$var tri1 1 + devpor $end
$var tri1 1 , devoe $end
$var wire 1 - ~QUARTUS_CREATED_GND~I_combout $end
$var wire 1 . b2~input_o $end
$var wire 1 / a1~input_o $end
$var wire 1 0 Cin~input_o $end
$var wire 1 1 inst6~combout $end
$var wire 1 2 inst7~combout $end
$upscope $end
$upscope $end
$enddefinitions $end
#0
$dumpvars
0!
0"
0#
0$
0%
x&
0'
1(
x)
1*
1+
1,
0-
0.
0/
00
01
02
$end
#10000
1#
10
0&
11
1%
#20000
1"
0#
1.
00
1&
#30000
1#
10
0&
12
01
0%
1$
#40000
1!
0"
0#
1/
0.
00
1&
02
11
1%
0$
#50000
1#
10
0&
12
01
0%
1$
#60000
1"
0#
1.
00
1&
02
0$
#70000
1#
10
0&
11
1%
